13 Введение в анализ данных в R | Статистика для анализа данных
…
Или можем вспомнить, что датафрейм имеет два измерения, как и двумерный массив, и можем обратиться по индексу (в квадртных скобках): номер строки (первое число) и номер колонки (второе число). Если нас интересует не конкретная строка, а все строки, то на месте этого индекс ничего не ставится, как бы пропускаем его.

whr[,8] # отбираем всю колонку другим способом

## # A tibble: 157 × 1
##    Family
##     <dbl>
##  1   1.16
##  2   1.15
##  3   1.18
##  4   1.13
##  5   1.13
##  6   1.10
##  7   1.03
##  8   1.17
##  9   1.10
## 10   1.09
## # … with 147 more rows
…
str(var1)

##  num [1:157] 7.53 7.51 7.5 7.5 7.41 ...

Отбор в базовом R по индексу

Индекс – это номер элемента в структуре данных. Мы говорили про них, когда обсуждали многомерные массивы: в одномерной структуре, например, векторе, индекс будет состоять из одного числа, в двумернй (например, матрице или датафрейме) – индекс состоит из двух чисел, разделенных запятой, в трехмерной – из трех, и так далее. Индекс в R всегда пишется в квадратных скобках, например, чтобы узнать, что находится во второй строчке третьего столбца, индекс элемента будет [2,3].
Сначала идет номер строки, затем – номер столбца. Если мы хотим вывести все строки или все столбцы – на месте этого индекса ничего не ставится. Например, если я хочу вывести все строки из третьей колонки, я напишу [,3]

var2 <- whr[,4]
var2

## # A tibble: 157 × 1
##    `Happiness Score`
##                <dbl>
##  1              7.53
##  2              7.51
##  3              7.50
##  4              7.50
##  5              7.41
##  6              7.40
##  7              7.34
##  8              7.33
##  9              7.31
## 10              7.29
## # … with 147 more rows
…
Отбор с помощью пакета tidyverse по названию

Сначала пара важных моментов отнсосительно работы с пакетом и кульурой написания кода tidyverse. Последовательность операций в рамках одной задачи пишется построчно с переносом на следующую строку в виде пайпа %>% – символа, который позволяет испльзовать в качестве аргумента функции следующей строки то, что получилось в результате выполнения предыдущей. На первой строке в пайп передаются сами данные, то есть название переменной, в которую мы их записали. Далее на каждой следующей строке в качестве первого аргумента функции в скобках будет применяться результат выполнения предыдущей. Подробнее про tidyverse https://pozdniakov.github.io/tidy_stats/110-tidyverse_basic.html и про пайпы https://pozdniakov.github.io/tidy_stats/110-tidyverse_basic.html

Внутри tidyverse используется такая структура данных, как tibble(https://tibble.tidyverse.org/). Тиббл – это модицифированный датафрейм, о чем мы уже говорили, когда обсуждали структуры данных

Вывод в датафрейм (тиббл):

var3 <- whr %>%
  select(`Happiness Score`)
var3

## # A tibble: 157 × 1
##    `Happiness Score`
##                <dbl>
##  1              7.53
##  2              7.51
##  3              7.50
##  4              7.50
##  5              7.41
##  6              7.40
##  7              7.34
##  8              7.33
##  9              7.31
## 10              7.29
## # … with 147 more rows

#смотрим структуру данных
str(var3)

## tibble [157 × 1] (S3: tbl_df/tbl/data.frame)
##  $ Happiness Score: num [1:157] 7.53 7.51 7.5 7.5 7.41 ...

С помощью функции select() мы можем вытаскивать даже не одну колонку, а несколько:

whr %>%
  select(Country,`Happiness Score`)

## # A tibble: 157 × 2
##    Country     `Happiness Score`
##    <chr>                   <dbl>
##  1 Denmark                  7.53
##  2 Switzerland              7.51
##  3 Iceland                  7.50
##  4 Norway                   7.50
##  5 Finland                  7.41
##  6 Canada                   7.40
##  7 Netherlands              7.34
##  8 New Zealand              7.33
##  9 Australia                7.31
## 10 Sweden                   7.29
## # … with 147 more rows
…
whr %>%
  filter(Region == "Central and Eastern Europe") 

## # A tibble: 29 × 13
##    Country Region Happi…¹ Happi…² Lower…³ Upper…⁴ Econo…⁵ Family Healt…⁶ Freedom
##    <chr>   <chr>    <dbl>   <dbl>   <dbl>   <dbl>   <dbl>  <dbl>   <dbl>   <dbl>
##  1 Czech … Centr…      27    6.60    6.52    6.68   1.31   1.01    0.764   0.414
##  2 Slovak… Centr…      45    6.08    6.00    6.16   1.28   1.08    0.704   0.234
##  3 Uzbeki… Centr…      49    5.99    5.90    6.08   0.736  1.17    0.502   0.608
##  4 Kazakh… Centr…      54    5.92    5.84    6.00   1.23   0.955   0.574   0.405
##  5 Moldova Centr…      55    5.90    5.82    5.97   0.692  0.831   0.523   0.252
##  6 Russia  Centr…      56    5.86    5.79    5.92   1.23   1.05    0.590   0.327
##  7 Poland  Centr…      57    5.84    5.75    5.92   1.25   1.05    0.691   0.452
##  8 Lithua… Centr…      60    5.81    5.73    5.89   1.27   1.06    0.647   0.189
##  9 Belarus Centr…      61    5.80    5.72    5.88   1.13   1.05    0.631   0.291
## 10 Sloven… Centr…      63    5.77    5.68    5.85   1.30   1.06    0.792   0.532
## # … with 19 more rows, 3 more variables: `Trust (Government Corruption)` <dbl>,
## #   Generosity <dbl>, `Dystopia Residual` <dbl>, and abbreviated variable names
## #   ¹​`Happiness Rank`, ²​`Happiness Score`, ³​`Lower Confidence Interval`,
## #   ⁴​`Upper Confidence Interval`, ⁵​`Economy (GDP per Capita)`,
## #   ⁶​`Health (Life Expectancy)`

А теперь отфильтруем эти значения и возьмем только те значения Happiness Score, которые соответствуют Центральной и восточной Европе

whr %>%
  filter(Region == "Central and Eastern Europe")  %>%
  select(`Happiness Score`) 

## # A tibble: 29 × 1
##    `Happiness Score`
##                <dbl>
##  1              6.60
##  2              6.08
##  3              5.99
##  4              5.92
##  5              5.90
##  6              5.86
##  7              5.84
##  8              5.81
##  9              5.80
## 10              5.77
## # … with 19 more rows
…
13.6.3 Создание колонок

Часто возникает задача перекодировать переменную – например, разбить непрерывные значения на группы, чтобы посмотреть различия между ними.

Например, продолжая предыдущий пример с фильтрацией первых 10 в рейтинге стран: для сравнения показателей, вклдывающихся в уровень счастья, нас может интересовать, отличаются ли “топовые” страны от всех остальных. Для этого нам проще создать отдельную колонку, которая служит индикатором, является ли страна “топовой”. Разберем, что это значит: нам нужно 1) создать новую колонку и 2) записать в нее значения, удовлятворяющие определенному условию. (1) достигается с помощью функции mutate() (как бы “измени” датафрейм, “примутируй” к нему колонку), а (2) достигается очень похожим на фильтрацию способом – с помощью функции ifelse (пример выше)

На паре топовые и не топовые страны превратились в hehe и not hehe, так и оставим.

whr_top <- whr %>% 
  mutate("Rank Category" = ifelse(`Happiness Rank` <=10, "hehe", "not hehe"))

whr_top

## # A tibble: 157 × 14
##    Country Region Happi…¹ Happi…² Lower…³ Upper…⁴ Econo…⁵ Family Healt…⁶ Freedom
##    <chr>   <chr>    <dbl>   <dbl>   <dbl>   <dbl>   <dbl>  <dbl>   <dbl>   <dbl>
##  1 Denmark Weste…       1    7.53    7.46    7.59    1.44   1.16   0.795   0.579
##  2 Switze… Weste…       2    7.51    7.43    7.59    1.53   1.15   0.863   0.586
##  3 Iceland Weste…       3    7.50    7.33    7.67    1.43   1.18   0.867   0.566
##  4 Norway  Weste…       4    7.50    7.42    7.58    1.58   1.13   0.796   0.596
##  5 Finland Weste…       5    7.41    7.35    7.48    1.41   1.13   0.811   0.571
##  6 Canada  North…       6    7.40    7.34    7.47    1.44   1.10   0.828   0.574
##  7 Nether… Weste…       7    7.34    7.28    7.39    1.46   1.03   0.812   0.552
##  8 New Ze… Austr…       8    7.33    7.26    7.40    1.36   1.17   0.831   0.581
##  9 Austra… Austr…       9    7.31    7.24    7.38    1.44   1.10   0.851   0.568
## 10 Sweden  Weste…      10    7.29    7.23    7.36    1.45   1.09   0.831   0.582
## # … with 147 more rows, 4 more variables:
## #   `Trust (Government Corruption)` <dbl>, Generosity <dbl>,
## #   `Dystopia Residual` <dbl>, `Rank Category` <chr>, and abbreviated variable
## #   names ¹​`Happiness Rank`, ²​`Happiness Score`, ³​`Lower Confidence Interval`,
## #   ⁴​`Upper Confidence Interval`, ⁵​`Economy (GDP per Capita)`,
## #   ⁶​`Health (Life Expectancy)`
…
